218204 566546 470
37835 602667 470
385638 632792 509
283825 889721 525
840966 755761 525
770075 451864 509
26527 825759 509
612263 280624 470
464563 865856 525
643006 715651 504
600183 556971 434
977873 807695 525
791582 60562 509
760434 653630 504
306078 894170 525
20237 287495 443
15158 411512 449
451224 36178 449
977660 62931 525
905444 191637 525
603847 242026 470
718473 954589 525
459350 658704 509
69303 347001 443
988507 851498 507
137720 676111 509
245296 669494 509
960578 841097 507
966429 132410 525
729217 882854 525
57895 482492 449
865185 370301 525
777268 435781 509
856439 91039 525
38978 8209 324
53020 442668 449
176300 31020 383
927398 111808 525
879692 798404 525
900827 714075 525
609929 787839 509
437953 741449 509
375356 114994 443
144644 915068 525
443340 378454 449
848159 659040 525
562464 500648 470
910012 544819 525
566798 916752 525
326763 451682 449
807416 806718 406
185131 152446 383
486052 909719 525
114395 109868 323
383059 131281 443
837071 278578 509
92056 271260 443
89360 797210 509
764944 133291 509
255535 6837 443
799005 572031 509
609771 542958 452
169074 856469 525
827064 853320 525
147135 341820 443
901600 423778 525
454444 779174 509
358761 460402 449
774498 63077 509
178593 692256 509
548762 587617 434
627290 245978 509
735465 672045 504
397477 813118 509
213720 262567 443
227829 666263 509
296290 876827 525
605656 317165 470
64457 205120 383
507768 809314 509
810915 235307 509
868252 191766 525
378664 65128 443
214614 70750 383
941464 959128 414
427102 184331 449
113289 667948 509
231500 555484 470
98849 978116 525
756779 312369 509
174531 497026 449
50537 432787 449
106567 524523 470
571937 396539 470
79378 63071 351
505789 758329 509
241238 965358 525
362359 387830 423
470612 904909 525
942215 953057 414
170158 539382 470
198254 48174 383
210016 100363 383
893858 104881 525
398682 683528 509
125699 57332 354
97263 686822 509
933376 651082 525
53 886080 525
31263 197555 383
490712 585887 470
777915 325396 509
715800 604291 509
874452 358313 525
997830 928107 507
5829 409406 443
263056 895979 525
673341 915080 525
683613 125338 509
377436 239942 441
220664 464622 449
768219 199366 509
119018 808979 509
844667 820682 525
180383 263480 443
97612 175323 383
792935 686279 504
107297 951563 525
357208 375494 410
372034 178667 443
321070 656180 509
353639 791615 509
111258 453662 449
320997 84765 443
991599 990849 321
902146 865336 445
686226 702529 442
798875 696464 504
965709 739012 525
375914 956143 525
676972 52193 509
850977 908075 445
297050 581593 470
226208 799263 509
800346 895925 525
86882 323842 443
531832 400835 470
240229 440386 449
947764 675105 525
259413 47267 443
641007 309041 509
115144 260030 443
833993 799051 450
341053 15738 443
256283 939497 525
289013 64217 443
86053 445241 449
42169 479916 449
915252 203283 525
758331 817132 468
92074 270942 443
324991 898396 525
187304 191722 360
162670 865301 525
909526 255362 525
890155 844762 445
742816 593388 509
131722 381721 443
746888 986920 525
157554 84831 383
373096 867680 525
542273 890412 525
342336 23612 443
19013 958052 525
3207 69906 340
125588 785092 509
644736 38406 509
767799 291082 509
143079 917220 525
45439 920601 525
157847 527708 470
486241 120296 449
676206 385507 509
11955 585716 470
601279 710544 509
208430 83655 383
549476 266217 470
651234 318466 509
927387 584632 525
497645 982937 525
311271 842544 525
681148 610692 509
73680 52550 335
972155 423253 525
824501 531992 509
186429 283039 443
994082 210371 525
161729 822695 509
957794 529638 525
762648 407146 509
193088 247991 443
764119 257324 509
87644 355435 443
869499 635758 525
591465 189218 470
532148 511428 470
154269 538394 470
157215 669893 509
770724 955472 525
400649 839801 525
239894 106886 443
867324 279835 525
481156 116416 449
907314 402289 525
970743 175902 525
217052 620760 470
86235 713768 509
595663 775252 509
424077 210902 449
590444 916102 525
864265 728384 525
445082 616500 470
548197 982250 525
298047 425551 449
383147 157866 443
466382 512578 470
882369 960727 507
265477 766894 509
338165 832320 509
225558 834699 509
496188 277278 449
261604 341001 407
334137 962508 525
225133 92735 386
71317 477473 449
839184 700275 525
598759 849047 525
397777 927711 525
940254 249498 525
515508 306060 470
359997 132898 443
396138 748902 509
365410 698889 509
707820 242431 509
243508 232093 381
586911 577409 434
743492 467303 509
262221 142088 443
843435 141876 525
447603 342199 449
